{
  "APP_BASE_URL": "qa.checklistfacil.com.br",
  "SELENIUM_HOST": "localhost",
  "E2E_TESTS_DB_HOST": "checklistdb-qa.clwigc1omkul.us-east-1.rds.amazonaws.com",
  "E2E_TESTS_DB_NAME": "checklis_checklist",
  "E2E_TESTS_DB_USER": "database_user",
  "E2E_TESTS_DB_PASSWORD": "database_password_base64",
  "MAILHOG_BASE_URL": "mailhog.checklistfacil.com.br:8025"
}
